%YAML 1.1
%TAG !u! tag:unity3d.com,2011:
--- !u!1 &1303824832428963159
GameObject:
  m_ObjectHideFlags: 0
  m_CorrespondingSourceObject: {fileID: 0}
  m_PrefabInstance: {fileID: 0}
  m_PrefabAsset: {fileID: 0}
  serializedVersion: 6
  m_Component:
  - component: {fileID: 1303824832428963112}
  - component: {fileID: 1303824832428963115}
  - component: {fileID: 1303824832428963114}
  - component: {fileID: 1303824832428963157}
  - component: {fileID: 1303824832428963156}
  m_Layer: 0
  m_Name: Conveyor RightLeft
  m_TagString: Untagged
  m_Icon: {fileID: 0}
  m_NavMeshLayer: 0
  m_StaticEditorFlags: 0
  m_IsActive: 1
--- !u!4 &1303824832428963112
Transform:
  m_ObjectHideFlags: 0
  m_CorrespondingSourceObject: {fileID: 0}
  m_PrefabInstance: {fileID: 0}
  m_PrefabAsset: {fileID: 0}
  m_GameObject: {fileID: 1303824832428963159}
  m_LocalRotation: {x: 0, y: 0.7071068, z: 0, w: 0.7071068}
  m_LocalPosition: {x: 5.54, y: 0.044, z: 4.99}
  m_LocalScale: {x: 5, y: 5, z: 5}
  m_Children:
  - {fileID: 1508247080300696160}
  m_Father: {fileID: 0}
  m_RootOrder: 0
  m_LocalEulerAnglesHint: {x: 0, y: 90, z: 0}
--- !u!33 &1303824832428963115
MeshFilter:
  m_ObjectHideFlags: 0
  m_CorrespondingSourceObject: {fileID: 0}
  m_PrefabInstance: {fileID: 0}
  m_PrefabAsset: {fileID: 0}
  m_GameObject: {fileID: 1303824832428963159}
  m_Mesh: {fileID: 10202, guid: 0000000000000000e000000000000000, type: 0}
--- !u!23 &1303824832428963114
MeshRenderer:
  m_ObjectHideFlags: 0
  m_CorrespondingSourceObject: {fileID: 0}
  m_PrefabInstance: {fileID: 0}
  m_PrefabAsset: {fileID: 0}
  m_GameObject: {fileID: 1303824832428963159}
  m_Enabled: 0
  m_CastShadows: 1
  m_ReceiveShadows: 1
  m_DynamicOccludee: 1
  m_MotionVectors: 1
  m_LightProbeUsage: 1
  m_ReflectionProbeUsage: 1
  m_RayTracingMode: 2
  m_RayTraceProcedural: 0
  m_RenderingLayerMask: 1
  m_RendererPriority: 0
  m_Materials:
  - {fileID: 10303, guid: 0000000000000000f000000000000000, type: 0}
  m_StaticBatchInfo:
    firstSubMesh: 0
    subMeshCount: 0
  m_StaticBatchRoot: {fileID: 0}
  m_ProbeAnchor: {fileID: 0}
  m_LightProbeVolumeOverride: {fileID: 0}
  m_ScaleInLightmap: 1
  m_ReceiveGI: 1
  m_PreserveUVs: 0
  m_IgnoreNormalsForChartDetection: 0
  m_ImportantGI: 0
  m_StitchLightmapSeams: 1
  m_SelectedEditorRenderState: 3
  m_MinimumChartSize: 4
  m_AutoUVMaxDistance: 0.5
  m_AutoUVMaxAngle: 89
  m_LightmapParameters: {fileID: 0}
  m_SortingLayerID: 0
  m_SortingLayer: 0
  m_SortingOrder: 0
  m_AdditionalVertexStreams: {fileID: 0}
--- !u!65 &1303824832428963157
BoxCollider:
  m_ObjectHideFlags: 0
  m_CorrespondingSourceObject: {fileID: 0}
  m_PrefabInstance: {fileID: 0}
  m_PrefabAsset: {fileID: 0}
  m_GameObject: {fileID: 1303824832428963159}
  m_Material: {fileID: 0}
  m_IsTrigger: 0
  m_Enabled: 1
  serializedVersion: 2
  m_Size: {x: 0.3587699, y: 0.045334697, z: 2.0992925}
  m_Center: {x: 0.14680076, y: 0.41119975, z: -0.19522512}
--- !u!114 &1303824832428963156
MonoBehaviour:
  m_ObjectHideFlags: 0
  m_CorrespondingSourceObject: {fileID: 0}
  m_PrefabInstance: {fileID: 0}
  m_PrefabAsset: {fileID: 0}
  m_GameObject: {fileID: 1303824832428963159}
  m_Enabled: 1
  m_EditorHideFlags: 0
  m_Script: {fileID: 11500000, guid: b65db3469ecf1274a868b6674382e84c, type: 3}
  m_Name: 
  m_EditorClassIdentifier: 
  speed: 2
  direction: {x: -1, y: 0, z: 0}
  onBelt: []
--- !u!1001 &1397496626283197835
PrefabInstance:
  m_ObjectHideFlags: 0
  serializedVersion: 2
  m_Modification:
    m_TransformParent: {fileID: 1303824832428963112}
    m_Modifications:
    - target: {fileID: -8679921383154817045, guid: 601797eb0378b5540b74b25798ee7f75, type: 3}
      propertyPath: m_RootOrder
      value: 0
      objectReference: {fileID: 0}
    - target: {fileID: -8679921383154817045, guid: 601797eb0378b5540b74b25798ee7f75, type: 3}
      propertyPath: m_LocalPosition.x
      value: 0.14879656
      objectReference: {fileID: 0}
    - target: {fileID: -8679921383154817045, guid: 601797eb0378b5540b74b25798ee7f75, type: 3}
      propertyPath: m_LocalPosition.y
      value: 0.424
      objectReference: {fileID: 0}
    - target: {fileID: -8679921383154817045, guid: 601797eb0378b5540b74b25798ee7f75, type: 3}
      propertyPath: m_LocalPosition.z
      value: -0.18739758
      objectReference: {fileID: 0}
    - target: {fileID: -8679921383154817045, guid: 601797eb0378b5540b74b25798ee7f75, type: 3}
      propertyPath: m_LocalRotation.w
      value: 0.7071068
      objectReference: {fileID: 0}
    - target: {fileID: -8679921383154817045, guid: 601797eb0378b5540b74b25798ee7f75, type: 3}
      propertyPath: m_LocalRotation.x
      value: 0
      objectReference: {fileID: 0}
    - target: {fileID: -8679921383154817045, guid: 601797eb0378b5540b74b25798ee7f75, type: 3}
      propertyPath: m_LocalRotation.y
      value: 0.7071068
      objectReference: {fileID: 0}
    - target: {fileID: -8679921383154817045, guid: 601797eb0378b5540b74b25798ee7f75, type: 3}
      propertyPath: m_LocalRotation.z
      value: 0
      objectReference: {fileID: 0}
    - target: {fileID: -8679921383154817045, guid: 601797eb0378b5540b74b25798ee7f75, type: 3}
      propertyPath: m_LocalEulerAnglesHint.x
      value: 0
      objectReference: {fileID: 0}
    - target: {fileID: -8679921383154817045, guid: 601797eb0378b5540b74b25798ee7f75, type: 3}
      propertyPath: m_LocalEulerAnglesHint.y
      value: 90
      objectReference: {fileID: 0}
    - target: {fileID: -8679921383154817045, guid: 601797eb0378b5540b74b25798ee7f75, type: 3}
      propertyPath: m_LocalEulerAnglesHint.z
      value: 0
      objectReference: {fileID: 0}
    - target: {fileID: 919132149155446097, guid: 601797eb0378b5540b74b25798ee7f75, type: 3}
      propertyPath: m_Name
      value: conveyor_belt
      objectReference: {fileID: 0}
    m_RemovedComponents: []
  m_SourcePrefab: {fileID: 100100000, guid: 601797eb0378b5540b74b25798ee7f75, type: 3}
--- !u!4 &1508247080300696160 stripped
Transform:
  m_CorrespondingSourceObject: {fileID: -8679921383154817045, guid: 601797eb0378b5540b74b25798ee7f75, type: 3}
  m_PrefabInstance: {fileID: 1397496626283197835}
  m_PrefabAsset: {fileID: 0}
