%YAML 1.1
%TAG !u! tag:unity3d.com,2011:
--- !u!1001 &7180798353905290998
PrefabInstance:
  m_ObjectHideFlags: 0
  serializedVersion: 2
  m_Modification:
    m_TransformParent: {fileID: 0}
    m_Modifications:
    - target: {fileID: 177825701979147884, guid: 7f2cb326b10a891458ac6419e94cf096, type: 3}
      propertyPath: DestroyedEvent
      value: 
      objectReference: {fileID: 11400000, guid: 01188553db1bd484dafe878264d8d7cd, type: 2}
    - target: {fileID: 177825701979147884, guid: 7f2cb326b10a891458ac6419e94cf096, type: 3}
      propertyPath: DestroyedEvent.Array.data[0]
      value: 
      objectReference: {fileID: 11400000, guid: 01188553db1bd484dafe878264d8d7cd, type: 2}
    - target: {fileID: 177825701979147884, guid: 7f2cb326b10a891458ac6419e94cf096, type: 3}
      propertyPath: DestroyedEvent.Array.data[1]
      value: 
      objectReference: {fileID: 11400000, guid: 01188553db1bd484dafe878264d8d7cd, type: 2}
    - target: {fileID: 177825701979147884, guid: 7f2cb326b10a891458ac6419e94cf096, type: 3}
      propertyPath: DestroyedEvent.Array.data[2]
      value: 
      objectReference: {fileID: 11400000, guid: 01188553db1bd484dafe878264d8d7cd, type: 2}
    - target: {fileID: 8770092099985820043, guid: 7f2cb326b10a891458ac6419e94cf096, type: 3}
      propertyPath: m_RootOrder
      value: 0
      objectReference: {fileID: 0}
    - target: {fileID: 8770092099985820043, guid: 7f2cb326b10a891458ac6419e94cf096, type: 3}
      propertyPath: m_LocalPosition.x
      value: 10.16
      objectReference: {fileID: 0}
    - target: {fileID: 8770092099985820043, guid: 7f2cb326b10a891458ac6419e94cf096, type: 3}
      propertyPath: m_LocalPosition.y
      value: 0
      objectReference: {fileID: 0}
    - target: {fileID: 8770092099985820043, guid: 7f2cb326b10a891458ac6419e94cf096, type: 3}
      propertyPath: m_LocalPosition.z
      value: 0
      objectReference: {fileID: 0}
    - target: {fileID: 8770092099985820043, guid: 7f2cb326b10a891458ac6419e94cf096, type: 3}
      propertyPath: m_LocalRotation.w
      value: 1
      objectReference: {fileID: 0}
    - target: {fileID: 8770092099985820043, guid: 7f2cb326b10a891458ac6419e94cf096, type: 3}
      propertyPath: m_LocalRotation.x
      value: 0
      objectReference: {fileID: 0}
    - target: {fileID: 8770092099985820043, guid: 7f2cb326b10a891458ac6419e94cf096, type: 3}
      propertyPath: m_LocalRotation.y
      value: 0
      objectReference: {fileID: 0}
    - target: {fileID: 8770092099985820043, guid: 7f2cb326b10a891458ac6419e94cf096, type: 3}
      propertyPath: m_LocalRotation.z
      value: 0
      objectReference: {fileID: 0}
    - target: {fileID: 8770092099985820043, guid: 7f2cb326b10a891458ac6419e94cf096, type: 3}
      propertyPath: m_LocalEulerAnglesHint.x
      value: 0
      objectReference: {fileID: 0}
    - target: {fileID: 8770092099985820043, guid: 7f2cb326b10a891458ac6419e94cf096, type: 3}
      propertyPath: m_LocalEulerAnglesHint.y
      value: 0
      objectReference: {fileID: 0}
    - target: {fileID: 8770092099985820043, guid: 7f2cb326b10a891458ac6419e94cf096, type: 3}
      propertyPath: m_LocalEulerAnglesHint.z
      value: 0
      objectReference: {fileID: 0}
    - target: {fileID: 9035970202518206423, guid: 7f2cb326b10a891458ac6419e94cf096, type: 3}
      propertyPath: m_Name
      value: Prefab1_flower
      objectReference: {fileID: 0}
    m_RemovedComponents: []
  m_SourcePrefab: {fileID: 100100000, guid: 7f2cb326b10a891458ac6419e94cf096, type: 3}
--- !u!4 &1878830360840718205 stripped
Transform:
  m_CorrespondingSourceObject: {fileID: 8770092099985820043, guid: 7f2cb326b10a891458ac6419e94cf096, type: 3}
  m_PrefabInstance: {fileID: 7180798353905290998}
  m_PrefabAsset: {fileID: 0}
--- !u!1001 &9110291258863563278
PrefabInstance:
  m_ObjectHideFlags: 0
  serializedVersion: 2
  m_Modification:
    m_TransformParent: {fileID: 1878830360840718205}
    m_Modifications:
    - target: {fileID: 3921588394365414907, guid: 42bdda86d59d36b4094c2b6ae2aa8794, type: 3}
      propertyPath: m_RootOrder
      value: 2
      objectReference: {fileID: 0}
    - target: {fileID: 3921588394365414907, guid: 42bdda86d59d36b4094c2b6ae2aa8794, type: 3}
      propertyPath: m_LocalScale.x
      value: 20
      objectReference: {fileID: 0}
    - target: {fileID: 3921588394365414907, guid: 42bdda86d59d36b4094c2b6ae2aa8794, type: 3}
      propertyPath: m_LocalScale.y
      value: 10
      objectReference: {fileID: 0}
    - target: {fileID: 3921588394365414907, guid: 42bdda86d59d36b4094c2b6ae2aa8794, type: 3}
      propertyPath: m_LocalScale.z
      value: 20
      objectReference: {fileID: 0}
    - target: {fileID: 3921588394365414907, guid: 42bdda86d59d36b4094c2b6ae2aa8794, type: 3}
      propertyPath: m_LocalPosition.x
      value: 0
      objectReference: {fileID: 0}
    - target: {fileID: 3921588394365414907, guid: 42bdda86d59d36b4094c2b6ae2aa8794, type: 3}
      propertyPath: m_LocalPosition.y
      value: 0.289
      objectReference: {fileID: 0}
    - target: {fileID: 3921588394365414907, guid: 42bdda86d59d36b4094c2b6ae2aa8794, type: 3}
      propertyPath: m_LocalPosition.z
      value: 0
      objectReference: {fileID: 0}
    - target: {fileID: 3921588394365414907, guid: 42bdda86d59d36b4094c2b6ae2aa8794, type: 3}
      propertyPath: m_LocalRotation.w
      value: 1
      objectReference: {fileID: 0}
    - target: {fileID: 3921588394365414907, guid: 42bdda86d59d36b4094c2b6ae2aa8794, type: 3}
      propertyPath: m_LocalRotation.x
      value: -0
      objectReference: {fileID: 0}
    - target: {fileID: 3921588394365414907, guid: 42bdda86d59d36b4094c2b6ae2aa8794, type: 3}
      propertyPath: m_LocalRotation.y
      value: -0
      objectReference: {fileID: 0}
    - target: {fileID: 3921588394365414907, guid: 42bdda86d59d36b4094c2b6ae2aa8794, type: 3}
      propertyPath: m_LocalRotation.z
      value: -0
      objectReference: {fileID: 0}
    - target: {fileID: 3921588394365414907, guid: 42bdda86d59d36b4094c2b6ae2aa8794, type: 3}
      propertyPath: m_LocalEulerAnglesHint.x
      value: 0
      objectReference: {fileID: 0}
    - target: {fileID: 3921588394365414907, guid: 42bdda86d59d36b4094c2b6ae2aa8794, type: 3}
      propertyPath: m_LocalEulerAnglesHint.y
      value: 0
      objectReference: {fileID: 0}
    - target: {fileID: 3921588394365414907, guid: 42bdda86d59d36b4094c2b6ae2aa8794, type: 3}
      propertyPath: m_LocalEulerAnglesHint.z
      value: 0
      objectReference: {fileID: 0}
    - target: {fileID: 3921588394365710811, guid: 42bdda86d59d36b4094c2b6ae2aa8794, type: 3}
      propertyPath: m_Name
      value: flower05
      objectReference: {fileID: 0}
    m_RemovedComponents: []
  m_SourcePrefab: {fileID: 100100000, guid: 42bdda86d59d36b4094c2b6ae2aa8794, type: 3}
