%YAML 1.1
%TAG !u! tag:unity3d.com,2011:
--- !u!95 &1710135098392627090
Animator:
  serializedVersion: 3
  m_ObjectHideFlags: 0
  m_CorrespondingSourceObject: {fileID: 0}
  m_PrefabInstance: {fileID: 0}
  m_PrefabAsset: {fileID: 0}
  m_GameObject: {fileID: 5232538789295048642}
  m_Enabled: 1
  m_Avatar: {fileID: 0}
  m_Controller: {fileID: 9100000, guid: 9cc93a42d11b37e418f34f89dd373787, type: 2}
  m_CullingMode: 0
  m_UpdateMode: 0
  m_ApplyRootMotion: 0
  m_LinearVelocityBlending: 0
  m_WarningMessage: 
  m_HasTransformHierarchy: 1
  m_AllowConstantClipSamplingOptimization: 1
  m_KeepAnimatorControllerStateOnDisable: 0
--- !u!1 &8336948210217085612
GameObject:
  m_ObjectHideFlags: 0
  m_CorrespondingSourceObject: {fileID: 0}
  m_PrefabInstance: {fileID: 0}
  m_PrefabAsset: {fileID: 0}
  serializedVersion: 6
  m_Component:
  - component: {fileID: 8336948210217085615}
  m_Layer: 0
  m_Name: Robot2
  m_TagString: Untagged
  m_Icon: {fileID: 0}
  m_NavMeshLayer: 0
  m_StaticEditorFlags: 0
  m_IsActive: 1
--- !u!4 &8336948210217085615
Transform:
  m_ObjectHideFlags: 0
  m_CorrespondingSourceObject: {fileID: 0}
  m_PrefabInstance: {fileID: 0}
  m_PrefabAsset: {fileID: 0}
  m_GameObject: {fileID: 8336948210217085612}
  m_LocalRotation: {x: 0, y: 0, z: 0, w: 1}
  m_LocalPosition: {x: 0, y: 0, z: 0}
  m_LocalScale: {x: 1, y: 1, z: 1}
  m_Children:
  - {fileID: 4888207570093874552}
  m_Father: {fileID: 0}
  m_RootOrder: 0
  m_LocalEulerAnglesHint: {x: 0, y: 0, z: 0}
--- !u!1001 &4926057969204820627
PrefabInstance:
  m_ObjectHideFlags: 0
  serializedVersion: 2
  m_Modification:
    m_TransformParent: {fileID: 8336948210217085615}
    m_Modifications:
    - target: {fileID: -8679921383154817045, guid: 03e271d4aa2a2ca448a16d5ee3209db9, type: 3}
      propertyPath: m_RootOrder
      value: 0
      objectReference: {fileID: 0}
    - target: {fileID: -8679921383154817045, guid: 03e271d4aa2a2ca448a16d5ee3209db9, type: 3}
      propertyPath: m_LocalScale.x
      value: 100
      objectReference: {fileID: 0}
    - target: {fileID: -8679921383154817045, guid: 03e271d4aa2a2ca448a16d5ee3209db9, type: 3}
      propertyPath: m_LocalScale.z
      value: 100
      objectReference: {fileID: 0}
    - target: {fileID: -8679921383154817045, guid: 03e271d4aa2a2ca448a16d5ee3209db9, type: 3}
      propertyPath: m_LocalEulerAnglesHint.x
      value: 0
      objectReference: {fileID: 0}
    - target: {fileID: -8679921383154817045, guid: 03e271d4aa2a2ca448a16d5ee3209db9, type: 3}
      propertyPath: m_LocalEulerAnglesHint.y
      value: 0
      objectReference: {fileID: 0}
    - target: {fileID: -8679921383154817045, guid: 03e271d4aa2a2ca448a16d5ee3209db9, type: 3}
      propertyPath: m_LocalEulerAnglesHint.z
      value: 0
      objectReference: {fileID: 0}
    - target: {fileID: 919132149155446097, guid: 03e271d4aa2a2ca448a16d5ee3209db9, type: 3}
      propertyPath: m_Name
      value: robot2
      objectReference: {fileID: 0}
    m_RemovedComponents: []
  m_SourcePrefab: {fileID: 100100000, guid: 03e271d4aa2a2ca448a16d5ee3209db9, type: 3}
--- !u!1 &5232538789295048642 stripped
GameObject:
  m_CorrespondingSourceObject: {fileID: 919132149155446097, guid: 03e271d4aa2a2ca448a16d5ee3209db9, type: 3}
  m_PrefabInstance: {fileID: 4926057969204820627}
  m_PrefabAsset: {fileID: 0}
--- !u!4 &4888207570093874552 stripped
Transform:
  m_CorrespondingSourceObject: {fileID: -8679921383154817045, guid: 03e271d4aa2a2ca448a16d5ee3209db9, type: 3}
  m_PrefabInstance: {fileID: 4926057969204820627}
  m_PrefabAsset: {fileID: 0}
